3 数据分析 – GradeThesis
…
Rows: 60 Columns: 11
── Column specification ────────────────────────────────────────────────────────
Delimiter: ","
chr (2): id, syncom
dbl (9): fresh_weight, shoot_weight, root_weight, first_leaf_weight, sample_...

ℹ Use `spec()` to retrieve the full column specification for this data.
ℹ Specify the column types or set `show_col_types = FALSE` to quiet this message.

data

# A tibble: 60 × 11
   id    syncom          fresh_weight shoot_weight root_weight first_leaf_weight
   <chr> <fct>                  <dbl>        <dbl>       <dbl>             <dbl>
 1 1-1   CK1/CK22/F19/G…         3.20         2.43       0.778             0.163
 2 1-2   CK1/CK22/F19/G…         3.10         2.33       0.772             0.165
 3 1-3   CK1/CK22/F19/G…         1.89         1.39       0.5               0.105
 4 1-4   CK1/CK22/F19/G…         3.55         2.89       0.664             0.126
 5 3-1   CK1/CK22/CMF9/…         4.47         3.22       1.25              0.197
 6 3-2   CK1/CK22/CMF9/…         3.77         2.71       1.06              0.157
 7 3-3   CK1/CK22/CMF9/…         2.84         1.96       0.88              0.137
 8 3-4   CK1/CK22/CMF9/…         2.7          1.88       0.815             0.107
 9 5-1   CK1/CK22/D              1.87         1.30       0.577             0.093
10 5-2   CK1/CK22/D              3.84         2.95       0.89              0.122
# ℹ 50 more rows
# ℹ 5 more variables: sample_weight <dbl>, absorbance <dbl>,
#   sample_protein_content <dbl>, leaf_protein_content <dbl>,
#   leaf_protein_content_2 <dbl>
…
