2 数据预处理 – GradThesis
…
其次，读取数据。我们将使用 read.xlsx() 函数来读取 Excel 文件。文件名为 20250418-combined.xlsx。这里，我们使用 xfun::magic_path() 函数来获取文件的路径。magic_path() 函数会自动处理文件路径的问题，确保在路径复杂的情况下也能正确找到相应的文件。

# 读取数据
file = xfun::magic_path("20250418-combined.xlsx")
rawdata = read.xlsx(file) |> as_tibble()

2.3 数据预览

接下来，我们可以预览一下数据。使用 rawdata 可以查看数据框的前几行。输出中可以看到数据一共有 61 行和 10 列。

# 数据预览
rawdata

# A tibble: 61 × 10
   合成菌群       序号  总鲜重 地上部 地下部 第一片叶总重量 测蛋白质所取叶片重量
   <chr>          <chr> <chr>  <chr>   <dbl> <chr>                         <dbl>
 1 CK1/CK22/F19/… 1-1   3.205  2.427   0.778 0.16300000000…                0.105
 2 <NA>           1-2   3.105  2.333   0.772 0.16500000000…                0.098
 3 <NA>           1-3   1.890  1.390   0.5   0.105                         0.105
 4 <NA>           1-4   3.550  2.886   0.664 0.126                         0.099
 5 CK1/CK22/CMF9… 3-1   4.466  3.219   1.25  0.19700000000…                0.103
 6 <NA>           3-2   3.772  2.708   1.06  0.157                         0.097
 7 <NA>           3-3   2.839  1.959   0.88  0.13700000000…                0.099
 8 <NA>           3-4   2.700  1.885   0.815 0.107                         0.1  
 9 CK1/CK22/D     5-1   1.872  1.295   0.577 9.29999999999…                0.093
10 <NA>           5-2   3.836  2.946   0.89  0.122                         0.099
# ℹ 51 more rows
# ℹ 3 more variables: 吸光度 <dbl>, `蛋白质含量（测量值）` <dbl>,
#   `蛋白质总量（第一片叶）` <dbl>
…
# 数据预览
rawdata

# A tibble: 60 × 10
   id    syncom          fresh_weight shoot_weight root_weight first_leaf_weight
   <chr> <chr>                  <dbl>        <dbl>       <dbl>             <dbl>
 1 1-1   CK1/CK22/F19/G…         3.20         2.43       0.778             0.163
 2 1-2   CK1/CK22/F19/G…         3.10         2.33       0.772             0.165
 3 1-3   CK1/CK22/F19/G…         1.89         1.39       0.5               0.105
 4 1-4   CK1/CK22/F19/G…         3.55         2.89       0.664             0.126
 5 3-1   CK1/CK22/CMF9/…         4.47         3.22       1.25              0.197
 6 3-2   CK1/CK22/CMF9/…         3.77         2.71       1.06              0.157
 7 3-3   CK1/CK22/CMF9/…         2.84         1.96       0.88              0.137
 8 3-4   CK1/CK22/CMF9/…         2.7          1.88       0.815             0.107
 9 5-1   CK1/CK22/D              1.87         1.30       0.577             0.093
10 5-2   CK1/CK22/D              3.84         2.95       0.89              0.122
# ℹ 50 more rows
# ℹ 4 more variables: sample_weight <dbl>, absorbance <dbl>,
#   sample_protein_content <dbl>, leaf_protein_content <dbl>
…
