4 数据预处理 – GradThesis
…
fresh_weight = read.xlsx(file, sheet = 2, rows = 1:181, cols = 1:7) |>
  as_tibble()
colnames(fresh_weight) = c('syncom_composition','syncom_id','rep','fresh_weight_total','fresh_weight_above','fresh_weight_below','fresh_weight_first_leaf')

write_csv(fresh_weight, "data/20250418-fresh-weight.csv")

4.7 第一片叶的蛋白质含量

protein_first_leaf = read.xlsx(file, sheet = 2, rows = 1:181, cols = c(1:3, 7:12)) |>
  as_tibble()
colnames(protein_first_leaf) = c('syncom_composition','syncom_id','rep','weight_first_leaf','weight_sample', 'absorbance','protein_conc_ml','protein_conc_g','protein_content')

protein_first_leaf

# A tibble: 180 × 9
   syncom_composition syncom_id   rep weight_first_leaf weight_sample absorbance
   <chr>                  <dbl> <dbl>             <dbl>         <dbl>      <dbl>
 1 CK1/CK22/F19/G7/K…         1     1             0.184         0.101      0.666
 2 CK1/CK22/F19/G7/K…         1     2             0.176         0.104      0.661
 3 CK1/CK22/F19/G7/K…         1     3             0.134         0.103      0.720
 4 CK1/CK22/F19/G7/K…         1     4             0.103         0.103      0.690
 5 CK1/F19/G7/KF11            2     1             0.164         0.102      0.677
 6 CK1/F19/G7/KF11            2     2             0.158         0.097      0.668
 7 CK1/F19/G7/KF11            2     3             0.15          0.103      0.775
 8 CK1/F19/G7/KF11            2     4             0.124         0.102      0.721
 9 CK1/CK22/CMF9/CMF…         3     1             0.15          0.102      0.724
10 CK1/CK22/CMF9/CMF…         3     2             0.195         0.104      0.666
# ℹ 170 more rows
# ℹ 3 more variables: protein_conc_ml <dbl>, protein_conc_g <dbl>,
#   protein_content <dbl>
…
